This is BibTeX, Version 0.99d (TeX Live 2013/Debian)
Capacity: max_strings=35307, hash_size=35307, hash_prime=30011
The top-level auxiliary file: error15.aux
The style file: wileyj.bst
Database file #1: error15.bib
Warning--entry type for "jha15-1" isn't style-file defined
--line 1 of file error15.bib
Warning--entry type for "sutter12-1" isn't style-file defined
--line 73 of file error15.bib
Warning--entry type for "eyr15-1" isn't style-file defined
--line 479 of file error15.bib
Warning--entry type for "surfnet15-1" isn't style-file defined
--line 491 of file error15.bib
Warning--entry type for "funet15-1" isn't style-file defined
--line 503 of file error15.bib
Warning--entry type for "janet15-1" isn't style-file defined
--line 515 of file error15.bib
Warning--entry type for "esnet15-1" isn't style-file defined
--line 527 of file error15.bib
Warning--entry type for "internet215-1" isn't style-file defined
--line 539 of file error15.bib
Warning--entry type for "stampede15-1" isn't style-file defined
--line 551 of file error15.bib
Warning--entry type for "supermuc15-1" isn't style-file defined
--line 563 of file error15.bib
Warning--entry type for "cartesius15-1" isn't style-file defined
--line 575 of file error15.bib
Warning--entry type for "emerald15-1" isn't style-file defined
--line 587 of file error15.bib
Warning--entry type for "Kraken15-1" isn't style-file defined
--line 599 of file error15.bib
Warning--entry type for "eSALSAMPI15-1" isn't style-file defined
--line 695 of file error15.bib
Warning--entry type for "eSALSAPOP15-1" isn't style-file defined
--line 707 of file error15.bib
Warning--entry type for "ana200g15-1" isn't style-file defined
--line 719 of file error15.bib
Warning--entry type for "gridmpi15-1" isn't style-file defined
--line 747 of file error15.bib
You've used 43 entries,
            2526 wiz_defined-function locations,
            755 strings with 10176 characters,
and the built_in function-call counts, 30692 in all, are:
= -- 3180
> -- 459
< -- 0
+ -- 477
- -- 111
* -- 1948
:= -- 2828
add.period$ -- 85
call.type$ -- 43
change.case$ -- 43
chr.to.int$ -- 0
cite$ -- 43
duplicate$ -- 3508
empty$ -- 2832
format.name$ -- 139
if$ -- 6706
int.to.chr$ -- 0
int.to.str$ -- 43
missing$ -- 405
newline$ -- 137
num.names$ -- 30
pop$ -- 1147
preamble$ -- 1
purify$ -- 0
quote$ -- 0
skip$ -- 1166
stack$ -- 0
substring$ -- 2835
swap$ -- 1943
text.length$ -- 0
text.prefix$ -- 0
top$ -- 0
type$ -- 0
warning$ -- 0
while$ -- 204
width$ -- 45
write$ -- 334
(There were 17 warnings)
