\relax 
\providecommand\HyperFirstAtBeginDocument{\AtBeginDocument}
\HyperFirstAtBeginDocument{\ifx\hyper@anchor\@undefined
\global\let\oldcontentsline\contentsline
\gdef\contentsline#1#2#3#4{\oldcontentsline{#1}{#2}{#3}}
\global\let\oldnewlabel\newlabel
\gdef\newlabel#1#2{\newlabelxx{#1}#2}
\gdef\newlabelxx#1#2#3#4#5#6{\oldnewlabel{#1}{{#2}{#3}}}
\AtEndDocument{\ifx\hyper@anchor\@undefined
\let\contentsline\oldcontentsline
\let\newlabel\oldnewlabel
\fi}
\fi}
\global\let\hyper@last\relax 
\gdef\HyperFirstAtBeginDocument#1{#1}
\providecommand\HyField@AuxAddToFields[1]{}
\citation{jha15-1}
\citation{merzky15-1}
\citation{seinstra11-1}
\citation{sutter12-1}
\citation{bal10-1}
\citation{luckow12-1}
\citation{bosilca13-1}
\citation{drost12-1}
\citation{worley11-1}
\newlabel{FirstPage}{{}{1}{\relax }{Doc-Start}{}}
\@writefile{toc}{\contentsline {section}{\numberline {1}Introduction}{1}{section.1}}
\newlabel{sec:intro}{{1}{1}{Introduction\relax }{section.1}{}}
\citation{seinstra11-1}
\citation{seinstra11-1}
\citation{vellinga08-1}
\citation{bryan10-1}
\citation{kirtman12-1}
\citation{weijer12-1}
\citation{brunnabend14-1}
\citation{werkhoven14-1}
\citation{werkhoven14-2}
\@writefile{lof}{\contentsline {figure}{\numberline {1}{\ignorespaces \em  Left: A 'worst case' Distributed Cyberinfrastructure (DCI) or Jungle System\nobreakspace  {}\cite  {seinstra11-1}, consisting of clusters, grids, clouds, supercomputers, and possibly even mobile devices. All resources may include hardware accelerators such as GPUs. Right: A DCI is hierarchical, with parallelism potential at all levels.\relax }}{2}{figure.caption.1}}
\providecommand*\caption@xref[2]{\@setref\relax\@undefined{#1}}
\newlabel{fig:jungle}{{1}{2}{\em Left: A 'worst case' Distributed Cyberinfrastructure (DCI) or Jungle System~\cite {seinstra11-1}, consisting of clusters, grids, clouds, supercomputers, and possibly even mobile devices. All resources may include hardware accelerators such as GPUs. Right: A DCI is hierarchical, with parallelism potential at all levels.\relax \relax }{figure.caption.1}{}}
\citation{eyr15-1}
\citation{surfnet15-1}
\citation{funet15-1}
\citation{janet15-1}
\citation{esnet15-1}
\citation{internet215-1}
\citation{stampede15-1}
\citation{supermuc15-1}
\citation{cartesius15-1}
\citation{emerald15-1}
\@writefile{toc}{\contentsline {section}{\numberline {2}Enlighten Your Research Global}{3}{section.2}}
\newlabel{sec:eyr-global}{{2}{3}{Enlighten Your Research Global\relax }{section.2}{}}
\@writefile{toc}{\contentsline {section}{\numberline {3}Our EYR-Global Competition Entry}{3}{section.3}}
\newlabel{sec:eyr-entry}{{3}{3}{Our EYR-Global Competition Entry\relax }{section.3}{}}
\@writefile{toc}{\contentsline {subsection}{\numberline {3.1}Rationale}{4}{subsection.3.1}}
\newlabel{sec:rationale}{{3.1}{4}{Rationale\relax }{subsection.3.1}{}}
\citation{worley11-1}
\@writefile{lof}{\contentsline {figure}{\numberline {2}{\ignorespaces \em  High level overview of CESM.\relax }}{5}{figure.caption.2}}
\newlabel{fig:cesm}{{2}{5}{\em High level overview of CESM.\relax \relax }{figure.caption.2}{}}
\@writefile{toc}{\contentsline {subsection}{\numberline {3.2}The Community Earth System Model (CESM)}{5}{subsection.3.2}}
\newlabel{sec:CESM}{{3.2}{5}{The Community Earth System Model (CESM)\relax }{subsection.3.2}{}}
\@writefile{toc}{\contentsline {subsection}{\numberline {3.3}Execution Scenarios}{5}{subsection.3.3}}
\newlabel{sec:scenarios}{{3.3}{5}{Execution Scenarios\relax }{subsection.3.3}{}}
\@writefile{lof}{\contentsline {figure}{\numberline {3}{\ignorespaces \em  CESM: a single simulated day (left to right) for all cores (bottom to top).\relax }}{5}{figure.caption.3}}
\newlabel{fig:cesmworkflow}{{3}{5}{\em CESM: a single simulated day (left to right) for all cores (bottom to top).\relax \relax }{figure.caption.3}{}}
\citation{werkhoven14-1}
\citation{dennis12-1}
\citation{kraken15-1}
\citation{hu15-1}
\@writefile{toc}{\contentsline {subsection}{\numberline {3.4}The Impact of Wide-Area Data Transfers on Execution Time}{6}{subsection.3.4}}
\newlabel{sec:impact}{{3.4}{6}{The Impact of Wide-Area Data Transfers on Execution Time\relax }{subsection.3.4}{}}
\@writefile{lof}{\contentsline {figure}{\numberline {4}{\ignorespaces \em  Supercomputer utilization in each of the defined execution scenarios.\relax }}{6}{figure.caption.4}}
\newlabel{fig:scenarios}{{4}{6}{\em Supercomputer utilization in each of the defined execution scenarios.\relax \relax }{figure.caption.4}{}}
\@writefile{lof}{\contentsline {figure}{\numberline {5}{\ignorespaces \em  Estimated data transfers for scenarios 1, 2, and 4; 0.1 degree ocean in black, 0.02 degree in red.\relax }}{7}{figure.caption.5}}
\newlabel{fig:scenario-124}{{5}{7}{\em Estimated data transfers for scenarios 1, 2, and 4; 0.1 degree ocean in black, 0.02 degree in red.\relax \relax }{figure.caption.5}{}}
\@writefile{lof}{\contentsline {figure}{\numberline {6}{\ignorespaces \em  Estimated data transfers for scenario 3; 0.1 degree ocean in black, 0.02 degree in red.\relax }}{7}{figure.caption.6}}
\newlabel{fig:scenario-3}{{6}{7}{\em Estimated data transfers for scenario 3; 0.1 degree ocean in black, 0.02 degree in red.\relax \relax }{figure.caption.6}{}}
\citation{karonis02-1}
\citation{gridmpi15-1}
\citation{kielmann99-1}
\citation{eSALSAMPI15-1}
\@writefile{lot}{\contentsline {table}{\numberline {I}{\ignorespaces Data transfer estimations, and percentage of total simulation time, in case of 1G and 10G networks.\relax }}{8}{table.caption.7}}
\newlabel{tab:impact}{{I}{8}{Data transfer estimations, and percentage of total simulation time, in case of 1G and 10G networks.\relax \relax }{table.caption.7}{}}
\@writefile{toc}{\contentsline {subsection}{\numberline {3.5}Requested Network Infrastructure}{8}{subsection.3.5}}
\newlabel{sec:network}{{3.5}{8}{Requested Network Infrastructure\relax }{subsection.3.5}{}}
\@writefile{toc}{\contentsline {section}{\numberline {4}Technical and Non-technical Complexities}{8}{section.4}}
\newlabel{sec:complexities}{{4}{8}{Technical and Non-technical Complexities\relax }{section.4}{}}
\citation{werkhoven14-1}
\citation{werkhoven14-1}
\citation{werkhoven14-2}
\citation{werkhoven15-1}
\citation{eSALSAPOP15-1}
\citation{ana200g15-1}
\citation{pzwart10-1}
\citation{groen15-1}
\@writefile{toc}{\contentsline {section}{\numberline {5}Related Work}{10}{section.5}}
\newlabel{sec:related}{{5}{10}{Related Work\relax }{section.5}{}}
\citation{grosso09-1}
\citation{seinstra07-1}
\citation{drost12-1}
\citation{pelupessy13-1}
\citation{snell00-1}
\citation{margo07-1}
\bibstyle{wileyj}
\bibdata{error15}
\bibcite{jha15-1}{1}
\@writefile{toc}{\contentsline {section}{\numberline {6}Conclusions and Recommendations}{11}{section.6}}
\newlabel{sec:conclude}{{6}{11}{Conclusions and Recommendations\relax }{section.6}{}}
\bibcite{merzky15-1}{2}
\bibcite{seinstra11-1}{3}
\bibcite{sutter12-1}{4}
\bibcite{bal10-1}{5}
\bibcite{luckow12-1}{6}
\bibcite{bosilca13-1}{7}
\bibcite{drost12-1}{8}
\bibcite{worley11-1}{9}
\bibcite{vellinga08-1}{10}
\bibcite{bryan10-1}{11}
\bibcite{kirtman12-1}{12}
\bibcite{weijer12-1}{13}
\bibcite{brunnabend14-1}{14}
\bibcite{werkhoven14-1}{15}
\bibcite{werkhoven14-2}{16}
\bibcite{eyr15-1}{17}
\bibcite{surfnet15-1}{18}
\bibcite{funet15-1}{19}
\bibcite{janet15-1}{20}
\bibcite{esnet15-1}{21}
\bibcite{internet215-1}{22}
\bibcite{stampede15-1}{23}
\bibcite{supermuc15-1}{24}
\bibcite{cartesius15-1}{25}
\bibcite{emerald15-1}{26}
\bibcite{dennis12-1}{27}
\bibcite{kraken15-1}{28}
\bibcite{hu15-1}{29}
\bibcite{karonis02-1}{30}
\bibcite{gridmpi15-1}{31}
\bibcite{kielmann99-1}{32}
\bibcite{eSALSAMPI15-1}{33}
\bibcite{werkhoven15-1}{34}
\bibcite{eSALSAPOP15-1}{35}
\bibcite{ana200g15-1}{36}
\bibcite{pzwart10-1}{37}
\bibcite{groen15-1}{38}
\bibcite{grosso09-1}{39}
\bibcite{seinstra07-1}{40}
\bibcite{pelupessy13-1}{41}
\bibcite{snell00-1}{42}
\bibcite{margo07-1}{43}
\newlabel{LastPage}{{6}{12}{Conclusions and Recommendations\relax }{section.6}{}}
